19 0.8185096153846154 0.3509615384615385 0.06490384615384616 0.057692307692307696
20 0.3497596153846154 0.3088942307692308 0.11298076923076923 0.12259615384615385
20 0.18028846153846154 0.3293269230769231 0.057692307692307696 0.05288461538461539
