11 0.7980769230769231 0.33052884615384615 0.06730769230769232 0.06490384615384616
12 0.08774038461538462 0.265625 0.17548076923076925 0.19951923076923078
5 0.23798076923076925 0.34615384615384615 0.0625 0.028846153846153848
6 0.9807692307692308 0.3449519230769231 0.03365384615384616 0.03605769230769231
