4 0.5228365384615384 0.33653846153846156 0.10336538461538462 0.057692307692307696
4 0.8389423076923077 0.3497596153846154 0.04807692307692308 0.026442307692307696
12 0.734375 0.33774038461538464 0.040865384615384616 0.04567307692307693
4 0.967548076923077 0.3401442307692308 0.05048076923076923 0.04567307692307693
