4 0.07932692307692309 0.32211538461538464 0.12980769230769232 0.09134615384615385
9 0.42668269230769235 0.3449519230769231 0.04567307692307693 0.04567307692307693
12 0.7932692307692308 0.34134615384615385 0.05288461538461539 0.05288461538461539
6 0.7439903846153847 0.35336538461538464 0.040865384615384616 0.038461538461538464
