12 0.09014423076923077 0.1875 0.18028846153846154 0.375
4 0.9110576923076924 0.3557692307692308 0.16826923076923078 0.07211538461538462
5 0.34855769230769235 0.3545673076923077 0.05288461538461539 0.03605769230769231
