4 0.5072115384615384 0.3389423076923077 0.04807692307692308 0.07211538461538462
9 0.22836538461538464 0.3040865384615385 0.125 0.1466346153846154
12 0.02764423076923077 0.32091346153846156 0.05528846153846154 0.08413461538461539
