1 0.038461538461538464 0.34134615384615385 0.028846153846153848 0.028846153846153848
2 0.49399038461538464 0.32572115384615385 0.18509615384615385 0.09375
2 0.12980769230769232 0.3425480769230769 0.05288461538461539 0.03125
