5 0.6514423076923077 0.33774038461538464 0.14423076923076925 0.07451923076923077
6 0.0625 0.3449519230769231 0.04326923076923077 0.05048076923076923
12 0.18509615384615385 0.3389423076923077 0.04326923076923077 0.05288461538461539
