3 0.7692307692307693 0.3449519230769231 0.05288461538461539 0.040865384615384616
4 0.08052884615384616 0.328125 0.11778846153846155 0.08413461538461539
12 0.9290865384615385 0.2512019230769231 0.13701923076923078 0.23317307692307693
