8 0.29791666666666666 0.3645833333333333 0.04583333333333333 0.07083333333333333
14 0.08958333333333333 0.40625 0.07083333333333333 0.0875
12 0.7541666666666667 0.33125 0.06666666666666667 0.12916666666666665
