0 0.8629807692307693 0.31730769230769235 0.09615384615384616 0.10096153846153846
0 0.21274038461538464 0.3545673076923077 0.05048076923076923 0.05048076923076923
2 0.10817307692307693 0.36418269230769235 0.05288461538461539 0.03605769230769231
