4 0.45072115384615385 0.34855769230769235 0.04567307692307693 0.04326923076923077
11 0.6622596153846154 0.3449519230769231 0.05528846153846154 0.06009615384615385
5 0.4014423076923077 0.35336538461538464 0.03365384615384616 0.02403846153846154
