3 0.7548076923076924 0.35216346153846156 0.05288461538461539 0.040865384615384616
4 0.11778846153846155 0.3353365384615385 0.10096153846153846 0.07451923076923077
12 0.8617788461538463 0.28365384615384615 0.15625 0.1778846153846154
