5 0.34635416666666663 0.3411458333333333 0.05208333333333333 0.03125
7 0.8307291666666666 0.45703125 0.09375 0.11197916666666666
12 0.27213541666666663 0.3372395833333333 0.05989583333333333 0.0546875
