12 0.8689903846153847 0.30528846153846156 0.13701923076923078 0.16346153846153846
2 0.6682692307692308 0.3581730769230769 0.057692307692307696 0.03365384615384616
3 0.11298076923076923 0.34855769230769235 0.08173076923076923 0.038461538461538464
