5 0.5865384615384616 0.33774038461538464 0.1201923076923077 0.06971153846153846
12 0.8245192307692308 0.3389423076923077 0.04807692307692308 0.05288461538461539
5 0.9350961538461539 0.35216346153846156 0.05288461538461539 0.03125
