12 0.5853365384615385 0.34134615384615385 0.04567307692307693 0.04326923076923077
11 0.13461538461538464 0.3401442307692308 0.04807692307692308 0.06009615384615385
5 0.3557692307692308 0.3557692307692308 0.04326923076923077 0.028846153846153848
