2 0.514423076923077 0.34134615384615385 0.10096153846153846 0.05288461538461539
2 0.140625 0.359375 0.03605769230769231 0.026442307692307696
1 0.05288461538461539 0.3605769230769231 0.028846153846153848 0.03365384615384616
