5 0.5442708333333333 0.34765625 0.03645833333333333 0.0234375
7 0.8268229166666666 0.4192708333333333 0.049479166666666664 0.0625
12 0.5013020833333333 0.35026041666666663 0.028645833333333332 0.028645833333333332
