9 0.41947115384615385 0.3401442307692308 0.03605769230769231 0.04567307692307693
4 0.5324519230769231 0.3473557692307693 0.040865384615384616 0.03605769230769231
4 0.07692307692307693 0.33774038461538464 0.13461538461538464 0.06490384615384616
12 0.6802884615384616 0.32091346153846156 0.08653846153846154 0.08413461538461539
6 0.8629807692307693 0.3389423076923077 0.057692307692307696 0.057692307692307696
