5 0.3294270833333333 0.3411458333333333 0.0546875 0.03125
7 0.8697916666666666 0.4700520833333333 0.11458333333333333 0.12239583333333333
12 0.24348958333333331 0.3372395833333333 0.05989583333333333 0.0546875
