2 0.4915865384615385 0.3449519230769231 0.1514423076923077 0.07932692307692309
2 0.15264423076923078 0.37259615384615385 0.040865384615384616 0.028846153846153848
1 0.06730769230769232 0.3737980769230769 0.02403846153846154 0.026442307692307696
