5 0.5528846153846154 0.3389423076923077 0.11057692307692309 0.0625
5 0.8810096153846154 0.3509615384615385 0.05528846153846154 0.028846153846153848
12 0.7692307692307693 0.3389423076923077 0.04326923076923077 0.04807692307692308
