4 0.5396634615384616 0.35216346153846156 0.07451923076923077 0.03605769230769231
12 0.9411057692307693 0.30528846153846156 0.11298076923076923 0.13461538461538464
9 0.8125 0.3425480769230769 0.04326923076923077 0.05048076923076923
