4 0.1622596153846154 0.33052884615384615 0.09375 0.08413461538461539
9 0.4411057692307693 0.3497596153846154 0.040865384615384616 0.04567307692307693
12 0.7776442307692308 0.3425480769230769 0.04567307692307693 0.05048076923076923
6 0.7415865384615385 0.3509615384615385 0.026442307692307696 0.028846153846153848
