12 0.3449519230769231 0.2824519230769231 0.08413461538461539 0.16586538461538464
5 0.609375 0.35216346153846156 0.05048076923076923 0.026442307692307696
4 0.795673076923077 0.33293269230769235 0.04326923076923077 0.06490384615384616
