4 0.8786057692307693 0.3509615384615385 0.04567307692307693 0.038461538461538464
12 0.9567307692307693 0.3389423076923077 0.06730769230769232 0.0625
9 0.764423076923077 0.3509615384615385 0.03365384615384616 0.038461538461538464
