17 0.3293269230769231 0.2932692307692308 0.15384615384615385 0.15384615384615385
16 0.5408653846153847 0.3629807692307693 0.03365384615384616 0.028846153846153848
17 0.828125 0.3930288461538462 0.03125 0.03125
