9 0.3185096153846154 0.33653846153846156 0.06971153846153846 0.06730769230769232
12 0.9242788461538463 0.34615384615384615 0.08413461538461539 0.08173076923076923
12 0.12740384615384617 0.3341346153846154 0.04807692307692308 0.04807692307692308
