9 0.16105769230769232 0.32091346153846156 0.11538461538461539 0.10336538461538462
12 0.8341346153846154 0.3293269230769231 0.05288461538461539 0.07211538461538462
3 0.6911057692307693 0.3497596153846154 0.040865384615384616 0.03125
