5 0.22836538461538464 0.35216346153846156 0.08653846153846154 0.040865384615384616
4 0.530048076923077 0.35697115384615385 0.026442307692307696 0.021634615384615384
11 0.6634615384615385 0.3545673076923077 0.028846153846153848 0.026442307692307696
6 0.9759615384615385 0.35336538461538464 0.03365384615384616 0.03365384615384616
