5 0.35807291666666663 0.34244791666666663 0.049479166666666664 0.033854166666666664
7 0.7864583333333333 0.44010416666666663 0.078125 0.09375
12 0.2981770833333333 0.3411458333333333 0.04427083333333333 0.046875
